<svg width="23" height="24" viewBox="0 0 23 24" fill="none" xmlns="http://www.w3.org/2000/svg">
<path d="M3 0C1.34531 0 0 1.34531 0 3V21C0 22.6547 1.34531 24 3 24H16.5C18.1547 24 19.5 22.6547 19.5 21V3C19.5 1.34531 18.1547 0 16.5 0H3ZM8.25 13.5H11.25C13.3219 13.5 15 15.1781 15 17.25C15 17.6625 14.6625 18 14.25 18H5.25C4.8375 18 4.5 17.6625 4.5 17.25C4.5 15.1781 6.17812 13.5 8.25 13.5ZM6.75 9C6.75 8.20435 7.06607 7.44129 7.62868 6.87868C8.19129 6.31607 8.95435 6 9.75 6C10.5456 6 11.3087 6.31607 11.8713 6.87868C12.4339 7.44129 12.75 8.20435 12.75 9C12.75 9.79565 12.4339 10.5587 11.8713 11.1213C11.3087 11.6839 10.5456 12 9.75 12C8.95435 12 8.19129 11.6839 7.62868 11.1213C7.06607 10.5587 6.75 9.79565 6.75 9ZM22.5 3.75C22.5 3.3375 22.1625 3 21.75 3C21.3375 3 21 3.3375 21 3.75V6.75C21 7.1625 21.3375 7.5 21.75 7.5C22.1625 7.5 22.5 7.1625 22.5 6.75V3.75ZM21.75 9C21.3375 9 21 9.3375 21 9.75V12.75C21 13.1625 21.3375 13.5 21.75 13.5C22.1625 13.5 22.5 13.1625 22.5 12.75V9.75C22.5 9.3375 22.1625 9 21.75 9ZM22.5 15.75C22.5 15.3375 22.1625 15 21.75 15C21.3375 15 21 15.3375 21 15.75V18.75C21 19.1625 21.3375 19.5 21.75 19.5C22.1625 19.5 22.5 19.1625 22.5 18.75V15.75Z" fill="white"/>
</svg>
